{
    "status": "OK",
    "names": [
        {
            "firstname":"Richard",
            "lastname":"Stallman"
        },
        {
            "firstname":"Bill",
            "lastname":"Joy"
        },
        {
            "firstname":"Linus",
            "lastname":"Torvalds"
        },
        {
            "firstname":"Alan",
            "lastname":"Tannenbaum"
        },
        {
            "firstname":"John",
            "lastname":"Draper"
        },
        {
            "firstname":"Steve",
            "lastname":"Wozniak"
        },
        {
            "firstname":"Philippe",
            "lastname":"Agrain"
        },
        {
            "firstname":"Jimmy",
            "lastname":"Wales"
        }
    ],
    "students": [
        {
            "firstname":"Camille",
            "lastname":"Woerly"
        },
        {
            "firstname":"Mathilde",
            "lastname":"Voeux"
        },
        {
            "firstname":"Jimmylan",
            "lastname":"Surqin"
        },
        {
            "firstname":"Leo",
            "lastname":"Riem"
        },
        {
            "firstname":"Nicolas",
            "lastname":"Midavoine"
        },
        {
            "firstname":"Lois",
            "lastname":"Marcinkowski"
        },
        {
            "firstname":"Ingrid",
            "lastname":"Piton"
        },
        {
            "firstname":"Younes",
            "lastname":"Labachi"
        },
        {
            "firstname":"Selim",
            "lastname":"Farkh"
        },
        {
            "firstname":"Kilian",
            "lastname":"Dubois"
        },
        {
            "firstname":"Maxence",
            "lastname":"Dubois"
        },
        {
            "firstname":"Marielle",
            "lastname":"Dubois"
        },
        {
            "firstname":"Theo",
            "lastname":"Delory"
        },
        {
            "firstname":"Amelie",
            "lastname":"Delory"
        },
        {
            "firstname":"Aurelie",
            "lastname":"Cliquet"
        },
        {
            "firstname":"Jeremy",
            "lastname":"Bustin"
        },
        {
            "firstname":"Pierre",
            "lastname":"Buirette"
        },
        {
            "firstname":"Victor",
            "lastname":"Bross"
        },
        {
            "firstname":"Bastien",
            "lastname":"Bourgois"
        },
        {
            "firstname":"Remy",
            "lastname":"Blanke"
        },
        {
            "firstname":"Jean-Pierre",
            "lastname":"Annheim"
        }
    ]
}
